%YAML 1.1
%TAG !u! tag:unity3d.com,2011:
--- !u!221 &22100000
AnimatorOverrideController:
  m_ObjectHideFlags: 0
  m_CorrespondingSourceObject: {fileID: 0}
  m_PrefabInstance: {fileID: 0}
  m_PrefabAsset: {fileID: 0}
  m_Name: DecayExplosion
  m_Controller: {fileID: 9100000, guid: 4d2ba126b11449749b5f8e5003424173, type: 2}
  m_Clips:
  - m_OriginalClip: {fileID: 7400000, guid: 09bdf98c999aad142a8ac35e6eaaa31b, type: 2}
    m_OverrideClip: {fileID: 7400000, guid: 6ad43d583c54ee849a57d75dda2c8219, type: 2}
  - m_OriginalClip: {fileID: 7400000, guid: db6aef6b6cd2a594796f8ef6d8d5ae77, type: 2}
    m_OverrideClip: {fileID: 7400000, guid: db6aef6b6cd2a594796f8ef6d8d5ae77, type: 2}
